^C:\USERS\JOA_L\DESKTOP\EJERCICIO26-05\EJERCICIO-26-05\MAIN.CPP
C:\USERS\JOA_L\DESKTOP\EJERCICIO26-05\EJERCICIO-26-05\X64\DEBUG\VC140.PDB
C:\USERS\JOA_L\DESKTOP\EJERCICIO26-05\EJERCICIO-26-05\X64\DEBUG\VC140.IDB
C:\USERS\JOA_L\DESKTOP\EJERCICIO26-05\EJERCICIO-26-05\X64\DEBUG\MAIN.OBJ
